<?xml version="1.0" encoding="UTF-8"?>
<svg width="27px" height="27px" viewBox="0 0 27 27" version="1.1" xmlns="http://www.w3.org/2000/svg" xmlns:xlink="http://www.w3.org/1999/xlink">
    <!-- Generator: Sketch 47.1 (45422) - http://www.bohemiancoding.com/sketch -->
    <title>Icons/Skip2x</title>
    <desc>Created with Sketch.</desc>
    <defs></defs>
    <g id="Symbols" stroke="none" stroke-width="1" fill="none" fill-rule="evenodd">
        <g id="Icons/Skip">
            <rect id="Rectangle-7" x="0" y="0" width="27" height="27"></rect>
            <text id="4" font-family="SFUIText-Bold, SF UI Text" font-size="20" font-weight="bold" fill="#FFFFFF">
                <tspan x="6.11523438" y="21">4</tspan>
            </text>
        </g>
    </g>
</svg>